Análisis Avanzado de Datos: Taller 2
…
set.seed(999)

results_repeated <- purrr::map_dfr(
  1:10,
  ~ run_single_experiment(auto_df, seed = .x),
  .id = "Iteracion"
)

results_repeated$Iteracion <- as.integer(results_repeated$Iteracion)

results_repeated

## # A tibble: 30 × 3
##    Iteracion Paradigma          ECM_prueba
##        <int> <chr>                   <dbl>
##  1         1 Bases de funciones       14.8
##  2         1 Regresión local          13.4
##  3         1 Polinomio global         14.0
##  4         2 Bases de funciones       28.3
##  5         2 Regresión local          28.0
##  6         2 Polinomio global         28.6
##  7         3 Bases de funciones       20.2
##  8         3 Regresión local          19.1
##  9         3 Polinomio global         19.6
## 10         4 Bases de funciones       22.0
## # ℹ 20 more rows
…
